<svg width="24" height="25" viewBox="0 0 24 25" fill="none" xmlns="http://www.w3.org/2000/svg">
<mask id="mask0_243_2100" style="mask-type:alpha" maskUnits="userSpaceOnUse" x="0" y="0" width="24" height="25">
<rect y="0.5" width="24" height="24" fill="#D9D9D9"/>
</mask>
<g mask="url(#mask0_243_2100)">
<path d="M5.40533 21.5C4.90021 21.5 4.47266 21.325 4.12266 20.975C3.77266 20.625 3.59766 20.1974 3.59766 19.6923V5.8077C3.59766 5.30257 3.77266 4.875 4.12266 4.525C4.47266 4.175 4.90021 4 5.40533 4H12.1169V5.49998H5.40533C5.3284 5.49998 5.25788 5.53203 5.19378 5.59613C5.12966 5.66024 5.09761 5.73077 5.09761 5.8077V19.6923C5.09761 19.7692 5.12966 19.8398 5.19378 19.9039C5.25788 19.968 5.3284 20 5.40533 20H12.1169V21.5H5.40533ZM16.1361 17.0192L15.0977 15.9346L17.5323 13.5H9.11686V12H17.5323L15.0977 9.5654L16.1361 8.48083L20.4053 12.75L16.1361 17.0192Z" fill="#7A8087"/>
</g>
</svg>
