<svg width="1022" height="876" viewBox="0 0 1022 876" fill="none" xmlns="http://www.w3.org/2000/svg">
<mask id="mask0_305_3480" style="mask-type:alpha" maskUnits="userSpaceOnUse" x="0" y="0" width="1022" height="876">
<rect width="1022" height="876" fill="#D9D9D9"/>
</mask>
<g mask="url(#mask0_305_3480)">
<g clip-path="url(#clip0_305_3480)">
<path d="M703.606 820.075C703.606 820.075 713.057 798.968 691.278 782.581C669.499 766.194 664.568 754.313 664.568 754.313C664.568 754.313 657.205 792.79 670.518 811.046V837.462H702.751L703.606 820.075Z" fill="url(#paint0_linear_305_3480)"/>
<path d="M684.113 836.052C684.113 836.052 683.044 821.304 697.772 811.439C712.499 801.557 712.285 791.61 712.285 791.61C712.285 791.61 723.594 819.862 709.294 836.052H684.113Z" fill="url(#paint1_linear_305_3480)"/>
<path d="M802.64 796.313C796.904 805.851 789.375 814.929 780.27 823.614V833.529H802.492C802.492 833.529 809.511 829.76 823.58 819.042C823.58 819.042 828.199 788.382 802.64 796.313Z" fill="#F49187"/>
<path d="M942.353 815.159C942.353 815.159 941.317 834.823 936.386 836.052C931.455 837.281 911.254 819.043 911.254 819.043L908.953 810.341L923.927 799.46C923.927 799.444 941.744 804.917 942.353 815.159Z" fill="#F49187"/>
<path d="M942.354 815.158C937.62 806.146 908.445 812.7 908.445 812.7L929.204 833.528H835.909C839 822.811 837.159 796.723 837.159 796.723C837.142 796.92 837.109 797.1 837.076 797.297C835.712 807.768 830.157 813.307 830.157 813.307C829.762 818.649 823.582 819.042 823.582 819.042C823.023 814.126 821.889 810.259 820.41 807.227C814.344 794.724 802.641 796.313 802.641 796.313C801.392 789.758 808.394 788.12 808.394 788.12C808.394 788.12 817.007 738.139 829.548 728.307C842.09 718.475 862.537 713.558 862.537 713.558L883.592 712.133C883.592 712.133 924.882 720.326 933.1 734.452C941.318 748.578 939.888 802.049 939.888 802.049C946.463 807.375 942.354 815.158 942.354 815.158Z" fill="url(#paint2_linear_305_3480)"/>
<path opacity="0.5" d="M908.444 812.701C908.444 812.701 911.929 782.385 900.636 755.969C900.636 755.969 902.477 796.117 886.041 807.391C869.604 818.666 841.661 816.404 834.676 836.069L896.314 835.528L908.444 812.701Z" fill="#F6613A"/>
<path opacity="0.5" d="M837.077 797.297C835.713 807.768 830.157 813.307 830.157 813.307C829.763 818.649 823.582 819.042 823.582 819.042C823.024 814.126 821.889 810.259 820.41 807.227C823.681 804.081 827.396 799.214 829.549 792.086C833.905 777.73 831.127 762.13 830.93 761.016C834.48 774.437 836.42 790.906 837.077 797.297Z" fill="#F6613A"/>
<path d="M881.732 823.139C881.732 823.139 904.941 806.949 924.665 813.504C944.389 820.059 942.746 833.578 936.368 836.036H887.189L881.732 823.139Z" fill="#FEB19E"/>
<path d="M887.934 712.871C887.934 712.871 883.101 739.909 868.719 740.057C856.161 740.171 859.071 723.752 860.008 719.573C860.139 718.95 860.238 718.606 860.238 718.606L855.027 698.81L882.69 684.209L883.249 687.241V687.29L887.934 712.871Z" fill="#FEB19E"/>
<path d="M860.008 719.573C860.139 718.95 860.238 718.606 860.238 718.606L855.027 698.81L882.69 684.209L883.249 687.241V687.29C886.882 719.573 860.517 719.573 860.008 719.573Z" fill="#FF856A"/>
<path d="M886.354 674.541C886.354 674.541 889.97 667.642 890.874 658.465C891.695 650.075 889.329 648.125 885.844 648.125C885.844 648.125 884.003 638.604 879.582 635.327C875.16 632.049 857.195 636.867 850.308 640.964C843.421 645.061 838.391 633.77 835.202 634.245C832.014 634.72 831.405 643.422 833.871 647.306C833.871 647.306 828.118 644.127 827.198 640.849C826.277 637.572 819.703 643.504 822.069 655.696C824.436 667.888 829.877 669.428 829.877 669.428C829.877 669.428 830.896 682.341 841.481 683.767C852.066 685.209 880.009 682.751 880.009 682.751L886.354 674.541Z" fill="url(#paint3_linear_305_3480)"/>
<path d="M837.158 669.92C837.158 669.92 842.286 704.955 855.239 709.445C868.191 713.936 879.006 700.17 880.65 696.483C882.294 692.796 882.984 685.061 882.984 685.061C882.984 685.061 887.389 686.077 887.915 678.294C888.424 670.51 881.652 665.905 880.009 679.31C880.009 679.31 873.681 675.836 875.587 663.938C875.587 663.938 868.322 670.772 858.197 670.772C848.056 670.772 856.833 663.938 856.833 663.938C856.833 663.938 849.552 670.674 837.158 669.92Z" fill="#FEB19E"/>
<path d="M918.022 831.546H833.652V836.052H918.022V831.546Z" fill="#F89D40"/>
<path d="M918.021 831.546H892.002V836.052H918.021V831.546Z" fill="#FF741C"/>
<path d="M903.789 831.677C903.789 831.677 896.327 820.583 885.133 820.747C876.668 820.878 876.356 826.204 876.356 826.204C876.356 826.204 870.784 825.548 870.652 831.661H903.789V831.677Z" fill="#FFC7AE"/>
<path d="M798.859 830.989C798.859 830.989 799.27 824.843 796.525 824.024C793.78 823.205 791.725 825.532 791.725 825.532C791.725 825.532 789.67 816.519 781.994 816.24C774.319 815.962 760.495 823.745 768.977 830.989H798.859Z" fill="#FEB19E"/>
<path d="M818.582 833.528C818.582 834.921 817.448 836.052 816.051 836.052H769.896C768.499 836.052 767.365 834.921 767.365 833.528C767.365 832.136 768.499 831.005 769.896 831.005H816.051C817.448 831.005 818.582 832.136 818.582 833.528Z" fill="#F8A042"/>
<path d="M804.89 833.528C804.89 834.921 803.756 836.052 802.359 836.052H769.896C768.499 836.052 767.365 834.921 767.365 833.528C767.365 832.136 768.499 831.005 769.896 831.005H802.359C803.756 831.005 804.89 832.136 804.89 833.528Z" fill="#F8BB52"/>
<path d="M792.973 826.941L784.788 800.279C784.426 799.099 783.177 798.411 781.977 798.722C780.662 799.066 779.922 800.492 780.415 801.77L790.195 827.662C790.195 827.645 791.839 828.58 792.973 826.941Z" fill="#525559"/>
<path d="M735.34 760.606C736.228 765.981 734.288 770.783 731.001 771.323C727.713 771.864 724.327 767.948 723.44 762.573C722.552 757.198 724.492 752.396 727.779 751.856C731.066 751.315 734.436 755.231 735.34 760.606Z" fill="white" stroke="#F230DB" stroke-miterlimit="10"/>
<path d="M785.277 807.998H697.653C693.806 807.998 690.371 805.638 688.941 802.082C678.685 776.551 671.107 751.724 668.033 728.078C667.31 722.473 671.682 717.524 677.337 717.524H766.161C770.813 717.524 774.724 720.917 775.415 725.489C778.751 747.398 785.277 770.881 794.12 795.543C796.289 801.607 791.753 807.998 785.277 807.998Z" fill="#59D9C1"/>
<path d="M781.726 807.998H697.653C693.806 807.998 690.371 805.638 688.941 802.082C678.684 776.551 671.107 751.724 668.033 728.078C667.31 722.473 671.682 717.524 677.337 717.524H762.594C767.246 717.524 771.158 720.917 771.864 725.489C775.185 747.398 781.71 770.881 790.553 795.543C792.739 801.607 788.186 807.998 781.726 807.998Z" fill="url(#paint4_linear_305_3480)"/>
<path d="M777.406 836.052H743.743C738.862 836.052 734.506 832.955 732.912 828.35L722.836 793.249C728.408 793.265 733.881 793.232 739.256 793.232C741.048 793.232 742.839 793.232 744.615 793.249L752.636 820.55C753.77 823.63 756.498 825.859 759.736 826.367L772.327 828.334C774.447 828.661 776.14 830.267 776.601 832.348L777.406 836.052Z" fill="url(#paint5_linear_305_3480)"/>
<path opacity="0.35" d="M759.736 826.367L756.892 826.105C752.882 825.761 749.414 823.204 747.902 819.485L739.256 793.232C741.047 793.232 742.839 793.232 744.614 793.249L752.635 820.55C753.77 823.63 756.498 825.859 759.736 826.367Z" fill="#90C6E0"/>
<path d="M734.651 761.77C735.901 766.965 734.306 771.799 731.085 772.553C727.863 773.323 724.247 769.734 722.998 764.539C721.749 759.345 723.343 754.51 726.565 753.757C729.786 753.003 733.419 756.575 734.651 761.77Z" fill="white"/>
<path d="M994.321 802.59L990.491 778.829L978.295 780.336L982.815 803.95L994.321 802.59Z" fill="#F9534E"/>
<path d="M993.975 800.41L998.199 771.078C998.33 770.16 999.202 769.537 1000.11 769.685C1000.99 769.832 1001.6 770.668 1001.47 771.569L996.785 801.918H998.56L1004.84 778.665C1005.09 777.78 1005.99 777.239 1006.89 777.469C1007.81 777.698 1008.37 778.632 1008.13 779.55L1002.26 801.935L996.374 804.671L993.975 800.41Z" fill="#F8C85A"/>
<path d="M1006.37 800.411V830.661C1006.37 833.332 1004.18 835.512 1001.5 835.512H983.981C981.301 835.512 979.115 833.332 979.115 830.661V800.411H1006.37Z" fill="url(#paint6_linear_305_3480)"/>
<path d="M1006.37 800.411H979.115V807.506H1006.37V800.411Z" fill="#44A5E4"/>
<path d="M994.4 682.763C1012.48 673.891 1019.92 652.085 1011.02 634.059C1002.12 616.032 980.253 608.612 962.172 617.484C944.091 626.357 936.648 648.163 945.547 666.189C954.447 684.215 976.319 691.636 994.4 682.763Z" fill="url(#paint7_linear_305_3480)"/>
<path d="M1004.83 654.139C1007.05 639.525 996.957 625.889 982.3 623.683C967.642 621.476 953.965 631.534 951.752 646.148C949.538 660.762 959.627 674.397 974.285 676.604C988.943 678.81 1002.62 668.752 1004.83 654.139Z" fill="white"/>
<path d="M993.421 648.928H980.189V631.115C980.189 629.706 979.039 628.575 977.641 628.575C976.228 628.575 975.094 629.722 975.094 631.115V653.598H976.852H980.206H993.437C994.736 653.598 995.788 652.55 995.788 651.255C995.788 649.96 994.703 648.928 993.421 648.928Z" fill="url(#paint8_linear_305_3480)"/>
</g>
<g clip-path="url(#clip1_305_3480)">
<path d="M585.855 51.092C595.942 49.7957 597.928 45.8835 600.247 39.1049C601.708 34.8331 605.363 31.6863 609.8 30.8517L609.978 30.8187C614.767 29.9182 619.725 30.4559 624.192 32.4054C628.199 34.1569 630.789 35.8392 632.042 41.1005L634.84 54.0608C635.285 56.1257 633.972 58.161 631.907 58.6096C629.895 59.0582 627.797 57.7586 627.358 55.6771L624.996 44.7389C624.475 41.2226 622.199 40.5332 620.599 40.1208C628.318 69.5709 615.734 70.6364 640.358 97.0814C643.205 100.324 640.566 105.78 636.311 105.638C632.847 105.757 631.086 102 628.998 99.8226C622.097 91.8828 615.572 83.3196 613.755 72.8267C613.636 72.1339 613.092 71.5996 612.399 71.4907C612.392 71.4907 612.386 71.4874 612.379 71.4874C611.891 71.4115 611.39 71.5666 611.03 71.903C603.536 78.9555 604.202 88.1619 607.758 100.944C608.761 104.223 606.142 107.68 602.724 107.634C600.451 107.634 598.357 106.139 597.697 103.847C592.762 87.1855 593.508 73.4435 604.337 63.8379C604.337 63.8379 604.182 55.4924 603.377 51.9332C601.032 56.8217 594.913 57.6068 589.982 58.2402C586.993 58.7877 583.477 59.3122 582.695 55.4858C582.355 53.4011 583.767 51.4318 585.855 51.092Z" fill="url(#paint9_linear_305_3480)"/>
<path d="M611.224 26.7711C615.015 22.3858 614.533 15.7574 610.148 11.9662C605.763 8.17504 599.134 8.65673 595.343 13.0421C591.552 17.4274 592.034 24.0558 596.419 27.8469C600.804 31.6381 607.433 31.1565 611.224 26.7711Z" fill="url(#paint10_linear_305_3480)"/>
<path d="M367.177 54.3085C375.694 53.2133 377.373 49.9114 379.329 44.1883C380.562 40.5829 383.65 37.9242 387.397 37.2183L387.549 37.1887C391.593 36.43 395.779 36.8819 399.553 38.5279C402.937 40.0057 405.124 41.4274 406.179 45.8706L408.541 56.8121C408.917 58.5571 407.809 60.2757 406.064 60.6517C404.365 61.0311 402.594 59.9326 402.224 58.1745L400.232 48.9383C399.79 45.9696 397.87 45.3857 396.521 45.0394C403.039 69.9044 392.411 70.8049 413.206 93.1365C415.61 95.8744 413.38 100.479 409.788 100.364C406.862 100.463 405.375 97.2895 403.613 95.4522C397.788 88.7494 392.276 81.5188 390.742 72.6587C390.64 72.0749 390.181 71.6229 389.597 71.5306C389.591 71.5306 389.587 71.5273 389.581 71.5273C389.169 71.4613 388.746 71.5933 388.443 71.8802C382.116 77.8342 382.677 85.6091 385.679 96.4022C386.526 99.173 384.313 102.089 381.43 102.049C379.51 102.049 377.742 100.789 377.185 98.8531C373.018 84.7844 373.645 73.1799 382.792 65.0686C382.792 65.0686 382.66 58.0194 381.981 55.0177C380.002 59.1443 374.836 59.8106 370.67 60.345C368.146 60.8068 365.178 61.2521 364.518 58.0194C364.221 56.258 365.415 54.5955 367.177 54.3085Z" fill="url(#paint11_linear_305_3480)"/>
<path d="M390.761 28.03C390.792 23.1367 386.85 19.1453 381.956 19.115C377.063 19.0847 373.072 23.0269 373.041 27.9202C373.011 32.8135 376.953 36.8049 381.846 36.8352C386.74 36.8655 390.731 32.9233 390.761 28.03Z" fill="url(#paint12_linear_305_3480)"/>
<path d="M214.016 84.851C222.534 83.7558 224.213 80.4539 226.169 74.7308C227.402 71.1254 230.49 68.4667 234.237 67.7608L234.389 67.7311C238.433 66.9725 242.619 67.4244 246.392 69.0704C249.777 70.5482 251.964 71.9699 253.019 76.4131L255.381 87.3546C255.757 89.0996 254.649 90.8182 252.904 91.1942C251.205 91.5736 249.434 90.4751 249.064 88.717L247.072 79.4808C246.63 76.5121 244.71 75.9282 243.361 75.5819C249.879 100.447 239.251 101.347 260.045 123.679C262.45 126.417 260.22 131.022 256.628 130.906C253.702 131.005 252.214 127.832 250.453 125.995C244.628 119.292 239.116 112.061 237.582 103.201C237.48 102.617 237.021 102.165 236.437 102.073C236.431 102.073 236.427 102.07 236.421 102.07C236.008 102.004 235.586 102.136 235.283 102.423C228.956 108.377 229.517 116.152 232.518 126.945C233.366 129.716 231.153 132.631 228.27 132.592C226.35 132.592 224.582 131.332 224.024 129.396C219.858 115.327 220.485 103.722 229.632 95.6111C229.632 95.6111 229.5 88.5619 228.821 85.5602C226.842 89.6868 221.676 90.3531 217.51 90.8874C214.986 91.3493 212.018 91.7946 211.358 88.5619C211.061 86.8005 212.255 85.1413 214.016 84.851Z" fill="url(#paint13_linear_305_3480)"/>
<path d="M237.601 58.5754C237.632 53.6821 233.689 49.6907 228.796 49.6604C223.903 49.6301 219.911 53.5723 219.881 58.4656C219.851 63.3589 223.793 67.3503 228.686 67.3806C233.58 67.4109 237.571 63.4687 237.601 58.5754Z" fill="url(#paint14_linear_305_3480)"/>
<path d="M107.446 156.764C150.735 156.764 185.828 121.671 185.828 78.3818C185.828 35.0927 150.735 0 107.446 0C64.1572 0 29.0645 35.0927 29.0645 78.3818C29.0645 121.671 64.1572 156.764 107.446 156.764Z" fill="url(#paint15_linear_305_3480)"/>
<path d="M165.004 78.3818C165.004 110.171 139.235 135.939 107.446 135.939C75.6575 135.939 49.8887 110.171 49.8887 78.3818C49.8887 46.593 75.6575 20.8242 107.446 20.8242C139.232 20.8275 165.004 46.593 165.004 78.3818Z" fill="url(#paint16_linear_305_3480)"/>
<path d="M144.944 64.1823V98.2942C144.944 102.26 141.729 105.475 137.763 105.475H105.071L92 115.165C91.2256 115.739 90.1276 115.186 90.1276 114.222V105.475H86.5573C82.5917 105.475 79.377 102.26 79.377 98.2942V64.1823C79.377 60.2167 82.5917 57.002 88.5415 57.002H139.748C141.729 57.002 144.944 60.2167 144.944 64.1823Z" fill="url(#paint17_linear_305_3480)"/>
<g opacity="0.3">
<path d="M116.675 61.7476H115.433C114.718 61.7476 114.139 61.1679 114.139 60.4534C114.139 59.7389 114.718 59.1592 115.433 59.1592H116.675C117.389 59.1592 117.969 59.7389 117.969 60.4534C117.969 61.1679 117.389 61.7476 116.675 61.7476Z" fill="white"/>
<path d="M133.959 61.7476H122.146C121.431 61.7476 120.852 61.1679 120.852 60.4534C120.852 59.7389 121.431 59.1592 122.146 59.1592H133.959C134.674 59.1592 135.253 59.7389 135.253 60.4534C135.253 61.1679 134.674 61.7476 133.959 61.7476Z" fill="white"/>
</g>
<g opacity="0.3">
<path d="M82.9192 93.8639C82.2047 93.8639 81.625 93.2842 81.625 92.5697V84.6238C81.625 83.9093 82.2047 83.3296 82.9192 83.3296C83.6337 83.3296 84.2134 83.9093 84.2134 84.6238V92.5697C84.2134 93.2842 83.6337 93.8639 82.9192 93.8639Z" fill="white"/>
<path d="M82.9192 80.8221C82.2047 80.8221 81.625 80.2424 81.625 79.5279V78.1814C81.625 77.4669 82.2047 76.8872 82.9192 76.8872C83.6337 76.8872 84.2134 77.4669 84.2134 78.1814V79.5279C84.2134 80.2424 83.6337 80.8221 82.9192 80.8221Z" fill="white"/>
</g>
<path d="M144.943 64.1808V98.2963C144.943 102.261 141.729 105.475 137.765 105.475H105.071L92.0078 115.173C91.2314 115.742 90.127 115.19 90.127 114.224V111.877L101.51 103.43C101.895 103.144 102.362 102.99 102.841 102.99H134.796C138.761 102.99 141.975 99.776 141.975 95.8113V61.696C141.975 60.1945 141.509 58.7969 140.715 57.6406C143.217 58.7623 144.943 61.2646 144.943 64.1808Z" fill="#19E8DA"/>
<path d="M86.2793 94.2185V68.2585C86.2793 65.854 88.2285 63.9048 92.6172 63.9048H134.05C136.009 63.9652 138.042 65.854 138.042 68.2585V94.2185C138.042 96.623 136.093 98.5722 133.689 98.5722H90.633C88.2285 98.5722 86.2793 96.623 86.2793 94.2185Z" fill="white"/>
<path d="M138.041 68.2621V94.2155C138.041 96.6312 136.091 98.5641 133.692 98.5641H90.6274C88.6776 98.5641 87.0382 97.3044 86.4688 95.527C86.7276 95.5788 87.0037 95.5959 87.2798 95.5959H130.327C132.726 95.5959 134.676 93.6459 134.676 91.2302V65.2768C134.676 64.8281 134.607 64.3795 134.486 63.9653C136.505 64.3449 138.041 66.1224 138.041 68.2621Z" fill="#E4E3FF"/>
<path d="M123.341 79.9807C123.341 86.148 118.337 91.1522 112.152 91.1522C105.984 91.1522 100.98 86.148 100.98 79.9807C100.98 73.795 105.984 68.791 112.152 68.791C118.337 68.791 123.341 73.795 123.341 79.9807Z" fill="#FCCA70"/>
<g opacity="0.3">
<path d="M103.889 80.3675C103.882 80.3675 103.872 80.3675 103.864 80.3675C103.481 80.3539 103.182 80.0323 103.196 79.6486C103.297 76.8797 104.635 74.355 106.864 72.7216C107.172 72.4929 107.608 72.5588 107.834 72.8707C108.061 73.1808 107.993 73.6148 107.685 73.8415C105.8 75.223 104.67 77.3583 104.583 79.699C104.57 80.073 104.261 80.3675 103.889 80.3675Z" fill="white"/>
</g>
<g opacity="0.3">
<path d="M109.726 72.0163C109.647 71.6423 109.887 71.2742 110.263 71.1928C110.809 71.0765 111.373 71.0106 111.939 70.9971C112.309 71.0746 112.64 71.2897 112.65 71.6733C112.66 72.057 112.357 72.3747 111.974 72.3844C111.495 72.398 111.015 72.4542 110.55 72.553C110.172 72.6285 109.806 72.3913 109.726 72.0163Z" fill="white"/>
</g>
<path d="M123.34 79.9806C123.34 86.1479 118.336 91.152 112.15 91.152C108.402 91.152 105.078 89.2871 103.047 86.4434C104.949 87.9391 107.349 88.8439 109.953 88.8439C116.139 88.8439 121.143 83.8397 121.143 77.6724C121.143 75.2536 120.367 73.0194 119.075 71.1914C121.678 73.2408 123.34 76.4167 123.34 79.9806Z" fill="url(#paint18_linear_305_3480)"/>
<path d="M116.708 81.5167L111.809 84.9679C110.557 85.8502 108.83 84.9545 108.83 83.4226V76.5201C108.83 74.9881 110.557 74.0925 111.809 74.9748L116.708 78.4261C117.776 79.1791 117.776 80.7637 116.708 81.5167Z" fill="url(#paint19_linear_305_3480)"/>
<path d="M116.697 81.5106L111.823 84.9675C110.661 85.789 109.074 85.0806 108.848 83.7489C109.443 84.0609 110.18 84.0893 110.803 83.6358L115.705 80.1786C116.357 79.7254 116.612 78.9603 116.47 78.2803L116.697 78.4221C117.774 79.1872 117.774 80.7738 116.697 81.5106Z" fill="white"/>
<path d="M101.731 44.6743L106.277 55.4122C106.857 56.7817 106.447 58.353 105.283 59.2787C102.643 61.3789 98.6226 65.3081 96.6549 68.186C95.7731 69.4758 94.1921 70.1442 92.6524 69.8788C89.2211 69.2872 83.6127 69.4354 80.2709 69.868C78.7964 70.0589 77.3835 69.2595 76.8038 67.8903L72.2578 57.1519L101.731 44.6743Z" fill="#474646"/>
<path d="M101.731 44.6816L106.272 55.4083C106.857 56.7908 106.444 58.3483 105.287 59.2713C102.65 61.3779 98.6209 65.3124 96.6594 68.1856C95.7778 69.4666 94.1856 70.1406 92.6525 69.8819C89.2243 69.2904 83.6121 69.4376 80.2644 69.8645C79.3982 69.9632 78.5433 69.7473 77.877 69.2455C78.288 69.3395 78.7368 69.3762 79.1913 69.3283C82.5316 68.884 88.1512 68.7543 91.5794 69.3458C93.1054 69.5869 94.6976 68.9128 95.5864 67.6494C97.5478 64.7763 101.57 60.8242 104.214 58.7351C105.371 57.8121 105.784 56.2546 105.199 54.8722L101.014 44.9854L101.731 44.6816Z" fill="#2D2C2C"/>
<path d="M103.201 48.1421L103.656 49.2162L91.0283 58.8667C90.7017 59.1237 90.3072 59.2907 89.8954 59.3463L74.1852 61.6927L73.7305 60.6185L89.4407 58.2722C89.8489 58.2082 90.2434 58.0412 90.5736 57.7925L103.201 48.1421Z" fill="#2D2C2C"/>
<g opacity="0.2">
<path d="M80.1911 68.1794C79.8436 68.3265 79.4424 68.1639 79.2953 67.8165L78.7007 66.4119C78.5536 66.0645 78.7162 65.6632 79.0636 65.5161C79.4111 65.369 79.8123 65.5316 79.9594 65.879L80.554 67.2836C80.7011 67.631 80.5386 68.0323 80.1911 68.1794Z" fill="white"/>
</g>
<g opacity="0.2">
<path d="M78.7173 64.6982C78.3699 64.8453 77.9686 64.6827 77.8215 64.3353L77.6069 63.8284C77.4598 63.481 77.6224 63.0797 77.9699 62.9326C78.3173 62.7855 78.7186 62.9481 78.8657 63.2956L79.0802 63.8024C79.2273 64.1499 79.0648 64.5511 78.7173 64.6982Z" fill="white"/>
</g>
<path d="M107.385 42.9805L107.865 44.1152L107.854 44.1198C107.925 44.3494 107.866 44.6084 107.647 44.766L90.5791 57.8114C90.2576 58.0645 89.8609 58.2324 89.4444 58.2918L68.2199 61.4574C67.9165 61.5079 67.6754 61.3371 67.5664 61.1104C67.5618 61.0995 67.5618 61.0995 67.5571 61.0884L67.1094 60.0309C67.2073 60.2622 67.4485 60.4329 67.7675 60.3887L88.992 57.2232C89.4038 57.1528 89.8005 56.9848 90.1267 56.7429L107.195 43.6974C107.437 43.5037 107.483 43.2118 107.385 42.9805Z" fill="#1B1B1B"/>
<path d="M107.194 43.6982L90.1297 56.7371C89.7972 56.9912 89.4057 57.1569 88.9919 57.2187L67.7628 60.3911C67.1359 60.4847 66.7961 59.6819 67.2998 59.2971L84.3549 46.2648C84.6872 46.0108 85.0784 45.8452 85.4921 45.7833L106.73 42.6042C107.357 42.5104 107.697 43.3133 107.194 43.6982Z" fill="#474646"/>
<path d="M70.0587 68.0388L67.2396 61.3771C66.769 60.2647 67.2904 58.9749 68.4028 58.5026L87.2834 50.5099C87.4926 50.4227 87.7271 50.521 87.8158 50.7254C87.903 50.9314 87.8063 51.1707 87.6003 51.2578L68.7197 59.2506C68.0193 59.5469 67.6897 60.3598 67.9876 61.0602L70.8066 67.7219C70.8938 67.9279 70.7971 68.1672 70.5911 68.2543C70.3907 68.3394 70.15 68.2498 70.0587 68.0388Z" fill="#F9B938"/>
<path d="M71.5258 75.2648L74.7734 73.8899C75.1846 73.7158 75.3232 73.2019 75.052 72.8418L72.4229 69.4128C72.5225 69.0638 72.4978 68.6785 72.3486 68.3261C71.9827 67.4617 70.9795 67.0553 70.1152 67.4211C69.2593 67.7835 68.8527 68.7868 69.2186 69.6511C69.3678 70.0036 69.6274 70.2895 69.9474 70.4608L70.5793 74.7353C70.6492 75.1806 71.1146 75.4388 71.5258 75.2648Z" fill="#F9B938"/>
<path d="M71.5258 75.265L72.1888 74.9844C71.7776 75.1584 71.3121 74.9003 71.2423 74.4549L70.6768 70.6307C70.6408 70.3873 70.5297 70.1565 70.3416 69.998C70.1454 69.8328 69.9863 69.6181 69.8816 69.3708C69.5654 68.6239 69.8276 67.7707 70.4686 67.3213C70.3452 67.3339 70.2326 67.3717 70.1152 67.4214C69.2593 67.7838 68.8527 68.7871 69.2186 69.6514C69.3678 70.0039 69.6274 70.2897 69.9474 70.4611L70.5793 74.7356C70.6492 75.1809 71.1146 75.4391 71.5258 75.265Z" fill="#ECB021"/>
<path d="M89.711 49.997C89.9778 50.6271 89.0029 51.6383 87.5504 52.2532C86.0808 52.8754 84.6759 52.8716 84.4092 52.2415C84.1424 51.6114 85.1175 50.6001 86.5871 49.9779C88.0396 49.363 89.4443 49.3668 89.711 49.997Z" fill="#F9B938"/>
<path d="M107.447 30.7826C137.53 30.7826 161.94 53.9422 164.503 83.3593C167.597 47.7342 139.615 20.8208 107.447 20.8208C75.3317 20.8208 47.2934 47.6815 50.3908 83.3593C52.9538 53.9422 77.3636 30.7826 107.447 30.7826Z" fill="#D0813B"/>
<path d="M615.749 799.701L488.204 745.221L483.873 787.872L611.417 842.352C663.433 864.571 719.411 876.024 775.976 876.024H974.988L1022.31 833.373H780.307C723.745 833.373 667.768 821.92 615.749 799.701Z" fill="url(#paint20_linear_305_3480)"/>
<path d="M209.89 275.811C209.233 282.309 216.764 287.91 225.09 290.622L252.577 297.539L362.127 293.67L593.117 269.263C488.897 262.336 387.896 254.541 321.488 241.271C259.837 250.877 211.46 261.518 209.89 275.811Z" fill="url(#paint21_linear_305_3480)"/>
<path d="M9.75184 265.981C14.6536 278.878 70.2057 295.619 122.822 302.124L252.58 297.539L225.092 290.622C216.767 287.913 209.236 282.312 209.892 275.811C211.462 261.518 259.837 250.876 321.488 241.271L389.334 233.546C584.81 245.971 770.562 239.981 779.61 220.269V203.317C452.799 194.737 2.4454 209.218 9.75184 265.981Z" fill="#12877A"/>
<path d="M779.612 132.529V220.272C777.207 182.41 5.54445 203.446 9.75348 265.981V170.39C15.1599 90.5769 747.76 53.7973 779.612 132.529Z" fill="url(#paint22_linear_305_3480)"/>
<path opacity="0.4" d="M779.611 220.272V214.712C779.611 212.591 778.768 210.556 777.268 209.056L681.235 113.023C678.171 109.959 673.225 109.891 670.078 112.87L657.45 124.824C654.179 127.921 654.108 133.106 657.293 136.291L667.096 146.093C667.42 146.418 667.603 146.859 667.603 147.318V147.318C667.603 148.861 665.737 149.634 664.646 148.543L631.692 115.588C630.054 113.951 627.788 113.103 625.479 113.264L604.958 114.694C601.253 114.953 598.214 117.726 597.618 121.391L590.788 163.374C590.588 164.602 590.675 165.86 591.058 167.043C594.324 177.129 598.535 187.272 603.554 197.307C604.871 199.941 607.591 201.581 610.535 201.617C708.488 202.817 778.887 208.876 779.611 220.272Z" fill="url(#paint23_linear_305_3480)"/>
<path d="M561.309 225.187L506.215 224.814L389.332 233.546C438.693 236.683 487.43 238.646 532.862 239.513L561.309 225.187Z" fill="url(#paint24_linear_305_3480)"/>
<path d="M506.215 224.814C506.215 224.814 583.129 221.456 594.885 224.814C594.885 224.814 566.672 229.851 506.215 224.814Z" fill="#02AEB0"/>
<path d="M546.055 400.188C545.072 393.406 522.573 385.767 480.258 378.236L474.459 376.085L379.409 377.867L368.798 385.988C313.048 393.496 243.278 400.301 236.262 410.243C234.27 416.517 266.923 422.091 310.518 427.214L407.876 439.284C484.582 427.392 547.804 414.999 546.055 400.188Z" fill="url(#paint25_linear_305_3480)"/>
<path d="M236.262 410.246C243.278 400.304 313.044 393.499 368.797 385.991L379.409 377.87L115.246 382.821L67.6992 410.249C67.6992 419.1 201.93 417.988 310.517 427.221C266.923 422.091 234.27 416.52 236.262 410.246Z" fill="#418797"/>
<path d="M519.363 375.244L474.459 376.085L480.258 378.236C522.573 385.767 545.069 393.406 546.056 400.188C547.804 414.996 484.583 427.392 407.877 439.287C340.839 452.224 237.344 460.296 126.23 467.348L661.405 443.166L683.024 407.073C685.709 393.357 632.823 383.313 519.363 375.244Z" fill="url(#paint26_linear_305_3480)"/>
<path d="M733.267 268.475V353.272C704.783 372.82 80.7997 397.616 67.7009 410.246L65.4941 321.916C74.5093 282.886 681.096 257.718 733.267 268.475Z" fill="url(#paint27_linear_305_3480)"/>
<path d="M517.236 538.655L512.793 519.46L338.59 550.691C392.717 557.909 443.239 565.819 455.381 570.968C517.299 552.486 517.236 538.655 517.236 538.655Z" fill="url(#paint28_linear_305_3480)"/>
<path d="M620.668 519.744L605.382 502.861L512.796 519.46L517.239 538.655C517.239 538.655 517.302 552.486 455.384 570.968C430.641 578.522 399.571 584.36 365.378 589.829C258.37 586.498 180.084 592.521 182.469 606.824C341.585 684.879 633.12 576.82 633.12 576.82V536.481C631.87 529.471 627.522 523.992 620.668 519.744Z" fill="url(#paint29_linear_305_3480)"/>
<path d="M476.979 558.347C482.19 557.678 483.216 555.656 484.414 552.156C485.169 549.949 487.056 548.323 489.348 547.891L489.441 547.874C491.915 547.409 494.478 547.686 496.783 548.696C498.855 549.599 500.191 550.47 500.837 553.188L502.282 559.881C502.513 560.947 501.834 561.999 500.768 562.23C499.729 562.461 498.644 561.788 498.42 560.716L497.199 555.065C496.929 553.248 495.754 552.891 494.93 552.68C498.918 567.893 492.416 568.444 505.139 582.107C506.61 583.783 505.248 586.6 503.048 586.527C501.26 586.587 500.349 584.647 499.267 583.522C495.702 579.422 492.33 574.999 491.394 569.576C491.331 569.22 491.05 568.942 490.694 568.886C490.691 568.886 490.688 568.886 490.684 568.886C490.43 568.847 490.173 568.926 489.988 569.101C486.119 572.742 486.462 577.499 488.296 584.103C488.814 585.798 487.462 587.583 485.697 587.557C484.522 587.557 483.441 586.785 483.098 585.6C480.548 576.994 480.934 569.892 486.528 564.931C486.528 564.931 486.449 560.62 486.033 558.783C484.823 561.306 481.663 561.715 479.113 562.042C477.569 562.325 475.751 562.596 475.349 560.62C475.171 559.538 475.9 558.522 476.979 558.347Z" fill="url(#paint30_linear_305_3480)"/>
<path d="M482.129 546.05C480.024 543.919 480.047 540.489 482.175 538.384C484.306 536.28 487.736 536.303 489.841 538.431C491.945 540.561 491.922 543.992 489.795 546.097C487.667 548.204 484.233 548.181 482.129 546.05Z" fill="url(#paint31_linear_305_3480)"/>
<path d="M683.174 483.7L683.022 407.073C644.494 442.045 290.734 458.825 126.229 467.348L127.119 554.01C141.508 574.092 692.635 546.713 683.174 483.7Z" fill="url(#paint32_linear_305_3480)"/>
<path opacity="0.31" d="M282.184 600.771C302.18 599.788 365.378 589.83 365.378 589.83C347.991 589.289 331.363 588.995 315.714 588.942C290.222 593.92 282.184 600.771 282.184 600.771Z" fill="url(#paint33_linear_305_3480)"/>
<path d="M587.675 661.261L464.21 686.459L460.176 695.145C450.676 699.875 437.251 704.684 422.773 709.51C416.041 708.263 389.058 705.529 365.377 703.035L284.205 708.194C245.265 714.263 227.152 722.352 229.21 732.389L236.296 755.09C236.296 755.09 451.781 784.099 561.338 712.357C561.335 712.36 587.675 687.861 587.675 661.261Z" fill="url(#paint34_linear_305_3480)"/>
<path opacity="0.31" d="M341.789 721.932C341.789 721.932 347.39 724.74 365.11 721.932C382.831 719.125 422.77 709.51 422.77 709.51C416.038 708.263 389.055 705.528 365.374 703.035L341.334 704.562L341.789 721.932Z" fill="url(#paint35_linear_305_3480)"/>
<path d="M365.11 721.932C365.11 721.932 335.353 717.123 316.119 722.971C316.119 722.971 322.357 727.649 365.11 721.932Z" fill="url(#paint36_linear_305_3480)"/>
<path d="M505.437 811.167C577.215 784.91 587.52 763.924 587.675 716.678V661.261C585.573 694.969 532.825 716.638 460.622 733.679C408.398 748.803 234.072 758.88 229.207 732.392L230.032 811.193C229.995 815.831 232.176 819.063 235.514 821.801C257.496 837.236 286.21 837.298 312.052 839.462C377.371 841.507 443.561 832.535 505.437 811.167Z" fill="url(#paint37_linear_305_3480)"/>
<path d="M633.269 613.104L633.118 536.478C636.693 590.882 268.063 634.456 182.467 606.824C182.754 633.088 182.83 659.371 183.117 685.631C182.285 708.672 265.388 706.944 282.963 708.19C393.45 708.989 503.861 694.468 587.676 661.264C606.742 650.362 634.071 639.061 633.269 613.104Z" fill="url(#paint38_linear_305_3480)"/>
<path d="M460.621 733.679C454.208 735.714 447.545 737.294 440.951 738.67C421.044 742.704 400.856 745.188 380.642 747.022C355.922 749.192 331.094 750.291 306.275 749.888C290.531 749.542 274.602 748.737 259.058 746.101C254.691 745.369 250.109 744.346 245.857 743.133C251.29 744.323 256.977 745.194 262.515 745.765C276.775 747.292 291.946 747.668 306.295 747.675C331.034 747.648 355.771 746.471 380.435 744.538C398.339 743.136 416.327 741.299 434.096 738.699C442.96 737.376 451.916 735.843 460.621 733.679Z" fill="url(#paint39_linear_305_3480)"/>
<path d="M467.315 598.521C403.734 609.879 339.13 616.179 274.524 616.479C261.62 616.469 248.623 616.136 235.752 615.295C227.271 614.741 218.427 613.896 210.016 612.722C206.777 612.234 202.597 611.581 199.391 610.937C197.692 610.634 194.724 609.938 193.074 609.588L197.316 610.314C199.243 610.644 201.756 610.951 203.702 611.244C211.391 612.207 219.506 612.927 227.248 613.346C261.593 615.226 296.041 614.071 330.359 612.109C376.174 609.414 421.824 604.65 467.315 598.521Z" fill="url(#paint40_linear_305_3480)"/>
<path d="M472.807 445.3C381.749 455.229 290.216 460.537 198.686 463.594C286.828 457.119 384.464 451.423 472.807 445.3Z" fill="url(#paint41_linear_305_3480)"/>
<path d="M151.938 297.535C207.298 288.761 263.253 283.747 319.128 279.545C368.403 275.999 417.938 273.3 467.315 271.915C363.346 279.063 255.191 285.479 151.938 297.535Z" fill="url(#paint42_linear_305_3480)"/>
<path d="M313.341 96.5308C210.312 104.504 115.46 118.325 60.0996 136.404C70.1373 133.937 81.224 131.331 91.3936 129.306C164.755 114.422 239.251 106.915 313.341 96.5308Z" fill="url(#paint43_linear_305_3480)"/>
<path opacity="0.3" d="M733.266 207.302C718.557 206.319 703.149 205.56 688.428 205.085C608.053 202.433 526.452 203.624 446.045 203.469C499.704 200.071 553.94 198.973 607.714 199.659C634.614 200.045 661.705 200.919 688.546 202.825C703.255 203.818 718.649 205.303 733.266 207.302Z" fill="url(#paint44_linear_305_3480)"/>
<path d="M603.09 392.087C608.302 391.417 609.328 389.395 610.525 385.895C611.28 383.688 613.167 382.062 615.46 381.633L615.552 381.617C618.026 381.152 620.589 381.429 622.895 382.438C624.966 383.342 626.302 384.213 626.949 386.931L628.394 393.624C628.624 394.689 627.945 395.742 626.879 395.972C625.84 396.203 624.755 395.53 624.531 394.458L623.31 388.808C623.04 386.99 621.866 386.634 621.041 386.423C625.029 401.636 618.527 402.187 631.25 415.85C632.721 417.526 631.359 420.343 629.159 420.27C627.371 420.329 626.461 418.39 625.379 417.265C621.813 413.165 618.442 408.741 617.505 403.318C617.442 402.962 617.162 402.685 616.806 402.629C616.802 402.629 616.799 402.629 616.796 402.629C616.542 402.589 616.284 402.669 616.1 402.843C612.23 406.485 612.573 411.242 614.407 417.846C614.925 419.541 613.573 421.326 611.808 421.299C610.634 421.299 609.552 420.527 609.209 419.343C606.659 410.737 607.045 403.635 612.639 398.674C612.639 398.674 612.56 394.363 612.145 392.525C610.934 395.049 607.774 395.458 605.224 395.784C603.68 396.068 601.863 396.339 601.46 394.363C601.282 393.281 602.011 392.265 603.09 392.087Z" fill="url(#paint45_linear_305_3480)"/>
<path d="M608.24 379.793C606.135 377.662 606.158 374.232 608.286 372.127C610.414 370.023 613.848 370.046 615.952 372.173C618.057 374.301 618.033 377.735 615.906 379.839C613.778 381.944 610.344 381.924 608.24 379.793Z" fill="url(#paint46_linear_305_3480)"/>
<path d="M429.571 415.718C434.783 415.049 435.809 413.027 437.006 409.527C437.761 407.32 439.648 405.694 441.941 405.262L442.033 405.245C444.507 404.78 447.07 405.057 449.376 406.067C451.447 406.97 452.783 407.841 453.43 410.559L454.874 417.252C455.105 418.318 454.426 419.37 453.36 419.601C452.321 419.835 451.236 419.159 451.012 418.087L449.791 412.436C449.521 410.619 448.347 410.262 447.522 410.051C451.51 425.265 445.008 425.815 457.731 439.478C459.202 441.154 457.84 443.971 455.64 443.898C453.852 443.958 452.942 442.018 451.86 440.893C448.294 436.793 444.923 432.37 443.986 426.947C443.923 426.591 443.643 426.314 443.286 426.257C443.283 426.257 443.28 426.257 443.277 426.257C443.023 426.218 442.765 426.297 442.581 426.472C438.711 430.114 439.054 434.87 440.888 441.474C441.406 443.169 440.054 444.954 438.289 444.928C437.115 444.928 436.033 444.156 435.69 442.972C433.14 434.365 433.526 427.264 439.12 422.302C439.12 422.302 439.041 417.991 438.622 416.154C437.412 418.677 434.252 419.086 431.702 419.413C430.158 419.697 428.34 419.967 427.938 417.991C427.763 416.912 428.492 415.893 429.571 415.718Z" fill="url(#paint47_linear_305_3480)"/>
<path d="M438.626 405.045C441.621 405.026 444.034 402.583 444.015 399.588C443.996 396.593 441.553 394.181 438.558 394.199C435.563 394.218 433.15 396.661 433.169 399.656C433.188 402.651 435.631 405.064 438.626 405.045Z" fill="url(#paint48_linear_305_3480)"/>
<path d="M206.738 290.813L200.333 291.512C197.347 287.894 194.735 283.968 193.93 279.301C193.867 278.945 193.587 278.668 193.227 278.611H193.217C192.967 278.572 192.706 278.651 192.521 278.826C188.893 282.243 188.969 286.637 190.506 292.621C188.682 292.832 186.871 293.043 185.073 293.257C183.18 285.578 183.922 279.218 189.064 274.66C189.064 274.66 188.982 270.345 188.566 268.508C187.356 271.035 184.196 271.44 181.646 271.767C180.102 272.051 178.285 272.321 177.882 270.345C177.704 269.267 178.436 268.251 179.512 268.072C184.724 267.403 185.749 265.384 186.947 261.881C187.702 259.674 189.592 258.048 191.885 257.619L191.977 257.599C194.451 257.137 197.011 257.411 199.32 258.421C201.388 259.324 202.727 260.195 203.374 262.913L204.819 269.606C205.05 270.675 204.37 271.727 203.305 271.955C202.262 272.189 201.18 271.516 200.953 270.441L199.736 264.79C199.465 262.973 198.291 262.616 197.463 262.405C201.349 277.233 195.272 278.133 206.738 290.813Z" fill="url(#paint49_linear_305_3480)"/>
<path d="M192.759 255.346C194.615 252.996 194.215 249.586 191.864 247.73C189.514 245.873 186.104 246.274 184.248 248.624C182.392 250.974 182.792 254.384 185.142 256.241C187.492 258.097 190.902 257.696 192.759 255.346Z" fill="url(#paint50_linear_305_3480)"/>
<path d="M206.74 290.813C204.586 291.047 202.452 291.278 200.334 291.512L206.74 290.813Z" fill="url(#paint51_linear_305_3480)"/>
<path d="M339.682 578.291C344.893 577.622 345.919 575.599 347.117 572.1C347.872 569.893 349.759 568.267 352.052 567.835L352.144 567.818C354.618 567.353 357.181 567.63 359.487 568.639C361.558 569.543 362.894 570.414 363.541 573.132L364.985 579.825C365.216 580.89 364.537 581.943 363.471 582.174C362.432 582.408 361.347 581.732 361.123 580.66L359.902 575.009C359.632 573.191 358.457 572.835 357.633 572.624C361.621 587.837 355.119 588.388 367.842 602.051C369.313 603.727 367.951 606.544 365.751 606.471C363.963 606.531 363.052 604.591 361.97 603.466C358.408 599.366 355.033 594.943 354.097 589.52C354.034 589.163 353.754 588.886 353.397 588.83C353.394 588.83 353.391 588.83 353.387 588.83C353.133 588.791 352.876 588.87 352.691 589.045C348.822 592.686 349.165 597.443 350.999 604.047C351.517 605.742 350.165 607.527 348.4 607.5C347.226 607.5 346.144 606.729 345.801 605.544C343.251 596.938 343.637 589.836 349.231 584.875C349.231 584.875 349.152 580.564 348.736 578.727C347.526 581.25 344.366 581.659 341.816 581.986C340.272 582.269 338.455 582.54 338.052 580.564C337.874 579.485 338.603 578.469 339.682 578.291Z" fill="url(#paint52_linear_305_3480)"/>
<path d="M348.735 567.621C351.73 567.603 354.143 565.159 354.124 562.164C354.105 559.169 351.662 556.757 348.667 556.775C345.672 556.794 343.259 559.238 343.278 562.233C343.297 565.228 345.74 567.64 348.735 567.621Z" fill="url(#paint53_linear_305_3480)"/>
<path d="M244.239 441.899C243.837 443.879 242.019 443.605 240.476 443.321C237.929 442.995 234.769 442.589 233.555 440.065C233.139 441.903 233.06 446.214 233.06 446.214C236.956 449.668 238.325 454.164 237.936 459.478C236.118 459.623 234.297 459.768 232.47 459.913C232.955 456.024 232.308 452.93 229.6 450.38C229.415 450.205 229.158 450.126 228.904 450.166C228.901 450.166 228.897 450.166 228.894 450.169C228.538 450.222 228.254 450.499 228.195 450.859C227.565 454.484 225.849 457.66 223.719 460.596C221.311 460.781 218.893 460.965 216.465 461.147C226.456 449.615 220.902 448.295 224.659 433.963C223.834 434.174 222.656 434.53 222.389 436.348L221.169 441.998C220.941 443.07 219.859 443.747 218.82 443.512C217.751 443.282 217.075 442.229 217.303 441.164L218.748 434.468C219.397 431.753 220.733 430.882 222.805 429.978C225.111 428.969 227.674 428.692 230.148 429.157L230.24 429.173C232.532 429.605 234.419 431.232 235.175 433.438C236.372 436.938 237.398 438.96 242.61 439.63C243.688 439.808 244.417 440.824 244.239 441.899Z" fill="url(#paint54_linear_305_3480)"/>
<path d="M236.999 427.783C239.35 425.928 239.751 422.517 237.896 420.166C236.04 417.815 232.63 417.414 230.279 419.269C227.927 421.125 227.526 424.535 229.382 426.886C231.237 429.237 234.648 429.639 236.999 427.783Z" fill="url(#paint55_linear_305_3480)"/>
<path opacity="0.5" d="M605.163 293.172C603.877 291.887 602.19 291.052 600.374 290.955C587.393 290.26 577.433 295.052 569.468 303.47C566.744 306.349 567.126 310.839 569.929 313.642L587.095 330.809C587.72 331.434 587.72 332.447 587.095 333.072V333.072C586.471 333.697 585.458 333.697 584.833 333.072L546.151 294.393C544.514 292.756 542.247 291.908 539.938 292.069L519.417 293.5C515.712 293.758 512.673 296.531 512.077 300.196L505.247 342.179C505.047 343.407 505.134 344.665 505.517 345.849C508.279 354.377 511.72 362.947 515.75 371.458C517.132 374.376 520.184 376.106 523.405 375.881C575.09 372.28 622.21 368.648 658.736 365.068C665.424 364.413 668.287 356.297 663.535 351.545L605.163 293.172Z" fill="url(#paint56_linear_305_3480)"/>
<path opacity="0.4" d="M539.137 288.161C528.216 281.313 511.478 285.193 506.079 297.444C501.437 305.09 503.565 323.925 503.113 332.792C503.113 338.086 504.103 342.721 506.079 346.692C511.475 358.94 528.219 362.829 539.137 355.974C553.793 347.655 549.937 325.545 550.379 311.344C550.415 301.768 546.925 293.096 539.137 288.161ZM538.075 333.785C538.468 346.088 522.945 351.689 516.921 340.237C514.078 336.265 515.909 315.038 515.417 310.252C515.417 307.871 515.918 305.72 516.921 303.797C522.941 292.357 538.468 297.935 538.075 310.252V333.785Z" fill="white"/>
<path opacity="0.4" d="M597.978 331.004C602.388 326.468 606.201 323.371 608.332 317.872C611.805 307.771 608.708 293.465 599.06 287.887C583.289 278.869 564.14 290.173 565.051 308.764H577.444C577.348 294.099 597.651 293.68 597.268 308.863C597.136 312.917 595.068 316.11 591.78 319.389L565.051 345.999V357.716H609.661V345.006H583.747L597.978 331.004Z" fill="white"/>
<path opacity="0.5" d="M543.223 456.361L503.425 469.071L521.422 487.068L517.233 495.681L536.421 514.872L535.279 516.779L480.354 461.854L449.872 463.978L441.721 514.084C445.059 524.748 449.466 535.489 454.773 546.107C512.799 540.051 567.843 532.144 609.363 522.502L543.223 456.361Z" fill="url(#paint57_linear_305_3480)"/>
<path opacity="0.4" d="M475.917 458.198C464.995 451.351 448.258 455.23 442.858 467.481C438.217 475.127 440.344 493.962 439.892 502.829C439.892 508.123 440.882 512.758 442.858 516.729C448.254 528.977 464.998 532.866 475.917 526.011C490.572 517.692 486.716 495.582 487.158 481.381C487.195 471.805 483.705 463.137 475.917 458.198ZM474.855 503.822C475.247 516.126 459.724 521.727 453.7 510.274C450.857 506.302 452.688 485.076 452.196 480.289C452.196 477.908 452.698 475.757 453.7 473.837C459.72 462.398 475.247 467.976 474.855 480.293C474.855 480.289 474.855 503.822 474.855 503.822Z" fill="white"/>
<path opacity="0.4" d="M542.437 494.912C540.18 489.374 536.067 484.911 530.324 483.09L543.255 469.074V456.364H503.424V469.074H529.008L511.832 485.059L517.232 495.684C526.917 489.486 535.77 502.159 530.839 510.923C526.712 519.398 514.385 517.501 512.627 508.192L500.943 511.666C502.622 518.395 507.049 523.976 513.069 526.981C533.164 536.395 550.617 513.75 542.437 494.912Z" fill="white"/>
<path d="M476.166 614.981L476.255 615.07L476.314 614.981H476.166Z" fill="#231F20"/>
<path opacity="0.2" d="M476.255 615.07L451.433 650.969L420.937 620.473L390.458 622.597L382.307 672.703C385.519 682.969 389.722 693.307 394.766 703.539C445.818 698.772 494.806 690.282 538.889 677.707L476.255 615.07Z" fill="url(#paint58_linear_305_3480)"/>
<path opacity="0.4" d="M416.501 616.819C405.579 609.971 388.842 613.85 383.442 626.101C378.801 633.747 380.928 652.582 380.476 661.449C380.476 666.743 381.466 671.378 383.442 675.349C388.838 687.597 405.582 691.486 416.501 684.632C431.156 676.312 427.3 654.202 427.742 640.001C427.775 630.425 424.289 621.753 416.501 616.819ZM415.439 662.442C415.831 674.746 400.308 680.347 394.284 668.894C391.441 664.922 393.272 643.696 392.78 638.909C392.78 636.528 393.282 634.377 394.284 632.454C400.304 621.014 415.831 626.592 415.439 638.909V662.442Z" fill="white"/>
<path opacity="0.4" d="M470.119 686.469V675.349H442.414V662.739L462.506 614.981H476.314L456.222 662.739H470.119V644.867H482.334V662.739H487.998V675.349H482.334V686.469H470.119Z" fill="white"/>
<path opacity="0.4" d="M624.68 109.359C613.759 102.511 597.021 106.39 591.622 118.641C586.98 126.288 589.108 145.123 588.656 153.989C588.656 159.284 589.646 163.918 591.622 167.89C597.018 180.138 613.762 184.027 624.68 177.172C639.336 168.853 635.48 146.742 635.922 132.542C635.958 122.966 632.472 114.294 624.68 109.359ZM623.618 154.982C624.011 167.286 608.487 172.887 602.464 161.434C599.621 157.463 601.452 136.236 600.96 131.45C600.96 129.068 601.461 126.918 602.464 124.995C608.484 113.555 624.011 119.133 623.618 131.45V154.982Z" fill="white"/>
<path opacity="0.4" d="M663.434 179.01V122.217L651.486 130.457V115.564L663.434 107.522H675.738V179.01H663.434Z" fill="white"/>
<path opacity="0.5" d="M404.041 757.036L374.67 766.309L371.539 786.397L347.667 762.525L317.188 764.653L309.037 814.755C311.627 823.032 314.862 831.354 318.662 839.63C369.214 840.636 420.181 835.022 469.165 822.161L404.041 757.036Z" fill="url(#paint59_linear_305_3480)"/>
<path opacity="0.7" d="M343.227 758.87C332.306 752.022 315.568 755.902 310.168 768.153C305.527 775.799 307.655 794.634 307.203 803.501C307.203 808.795 308.193 813.43 310.168 817.401C315.565 829.649 332.309 833.538 343.227 826.683C357.883 818.364 354.027 796.254 354.469 782.053C354.505 772.477 351.019 763.808 343.227 758.87ZM342.165 804.493C342.558 816.797 327.034 822.398 321.011 810.946C318.168 806.974 319.998 785.747 319.507 780.961C319.507 778.58 320.008 776.429 321.011 774.509C327.031 763.069 342.558 768.647 342.165 780.964V804.493Z" fill="white"/>
<path opacity="0.7" d="M405.699 793.994C401.203 784.102 388.658 779.536 379.056 785.207L379.897 769.644H404.036V757.033H369.253L367.306 795.06L377.486 798.536C386.946 788.862 400.665 799.74 394.81 811.592C390.535 820.182 378.492 818.028 376.599 808.861L365.004 812.335C375.998 847.178 419.586 825.064 405.699 793.994Z" fill="white"/>
<path d="M405.757 879.049C521.436 879.049 615.212 871.299 615.212 861.738C615.212 852.177 521.436 844.427 405.757 844.427C290.077 844.427 196.301 852.177 196.301 861.738C196.301 871.299 290.077 879.049 405.757 879.049Z" fill="url(#paint60_radial_305_3480)"/>
</g>
</g>
<defs>
<linearGradient id="paint0_linear_305_3480" x1="663" y1="755.5" x2="669.315" y2="823.684" gradientUnits="userSpaceOnUse">
<stop stop-color="#17EAD9"/>
<stop offset="1" stop-color="#6078EA"/>
</linearGradient>
<linearGradient id="paint1_linear_305_3480" x1="712.5" y1="805" x2="696.5" y2="825.5" gradientUnits="userSpaceOnUse">
<stop stop-color="#428495"/>
<stop stop-color="#19E9DA"/>
<stop offset="0.9905" stop-color="#98AAFF"/>
</linearGradient>
<linearGradient id="paint2_linear_305_3480" x1="878.415" y1="823.727" x2="863.709" y2="734.13" gradientUnits="userSpaceOnUse">
<stop stop-color="#F79239"/>
<stop offset="1" stop-color="#F7C759"/>
</linearGradient>
<linearGradient id="paint3_linear_305_3480" x1="821.54" y1="659.204" x2="891.041" y2="659.204" gradientUnits="userSpaceOnUse">
<stop stop-color="#2D2D2D"/>
<stop offset="1" stop-color="#5E3434"/>
</linearGradient>
<linearGradient id="paint4_linear_305_3480" x1="768.883" y1="717.524" x2="650.722" y2="765.941" gradientUnits="userSpaceOnUse">
<stop stop-color="#1BBFA3"/>
<stop offset="1" stop-color="#13897B"/>
</linearGradient>
<linearGradient id="paint5_linear_305_3480" x1="750.121" y1="793.232" x2="750.121" y2="836.052" gradientUnits="userSpaceOnUse">
<stop stop-color="#1BBFA3"/>
<stop offset="1" stop-color="#053840"/>
</linearGradient>
<linearGradient id="paint6_linear_305_3480" x1="990" y1="808.5" x2="993" y2="836" gradientUnits="userSpaceOnUse">
<stop stop-color="#17EAD9"/>
<stop offset="1" stop-color="#6078EA"/>
</linearGradient>
<linearGradient id="paint7_linear_305_3480" x1="975.356" y1="644.189" x2="995.116" y2="684.457" gradientUnits="userSpaceOnUse">
<stop stop-color="#FCE277"/>
<stop offset="1" stop-color="#F9524D"/>
</linearGradient>
<linearGradient id="paint8_linear_305_3480" x1="975.094" y1="641.087" x2="995.788" y2="641.087" gradientUnits="userSpaceOnUse">
<stop stop-color="#FFC170"/>
<stop offset="1" stop-color="#F62F42"/>
</linearGradient>
<linearGradient id="paint9_linear_305_3480" x1="582.645" y1="69.0146" x2="641.545" y2="69.0146" gradientUnits="userSpaceOnUse">
<stop stop-color="#02AAB0"/>
<stop offset="1" stop-color="#00CDAC"/>
</linearGradient>
<linearGradient id="paint10_linear_305_3480" x1="596.419" y1="27.8469" x2="610.148" y2="11.9662" gradientUnits="userSpaceOnUse">
<stop stop-color="#02AAB0"/>
<stop offset="1" stop-color="#00CDAC"/>
</linearGradient>
<linearGradient id="paint11_linear_305_3480" x1="364.473" y1="69.4407" x2="414.208" y2="69.4407" gradientUnits="userSpaceOnUse">
<stop stop-color="#02AAB0"/>
<stop offset="1" stop-color="#00CDAC"/>
</linearGradient>
<linearGradient id="paint12_linear_305_3480" x1="381.846" y1="36.8352" x2="381.956" y2="19.115" gradientUnits="userSpaceOnUse">
<stop stop-color="#02AAB0"/>
<stop offset="1" stop-color="#00CDAC"/>
</linearGradient>
<linearGradient id="paint13_linear_305_3480" x1="211.312" y1="99.9832" x2="261.048" y2="99.9832" gradientUnits="userSpaceOnUse">
<stop stop-color="#02AAB0"/>
<stop offset="1" stop-color="#00CDAC"/>
</linearGradient>
<linearGradient id="paint14_linear_305_3480" x1="228.686" y1="67.3806" x2="228.796" y2="49.6604" gradientUnits="userSpaceOnUse">
<stop stop-color="#02AAB0"/>
<stop offset="1" stop-color="#00CDAC"/>
</linearGradient>
<linearGradient id="paint15_linear_305_3480" x1="107.446" y1="64.1297" x2="107.446" y2="160.717" gradientUnits="userSpaceOnUse">
<stop stop-color="#FCE277"/>
<stop offset="1" stop-color="#F9524D"/>
</linearGradient>
<linearGradient id="paint16_linear_305_3480" x1="107.446" y1="139.16" x2="107.446" y2="50.7718" gradientUnits="userSpaceOnUse">
<stop stop-color="#F73143"/>
<stop offset="1" stop-color="#FFBC6F"/>
</linearGradient>
<linearGradient id="paint17_linear_305_3480" x1="41.2398" y1="90.9026" x2="108.574" y2="166.651" gradientUnits="userSpaceOnUse">
<stop stop-color="#E35C67"/>
<stop offset="1" stop-color="#381CE2"/>
</linearGradient>
<linearGradient id="paint18_linear_305_3480" x1="91.2433" y1="82.7792" x2="114.415" y2="106.382" gradientUnits="userSpaceOnUse">
<stop stop-color="#E35C67"/>
<stop offset="1" stop-color="#381CE2"/>
</linearGradient>
<linearGradient id="paint19_linear_305_3480" x1="113.17" y1="85.6153" x2="113.17" y2="77.4074" gradientUnits="userSpaceOnUse">
<stop stop-color="#F73143"/>
<stop offset="1" stop-color="#FFBC6F"/>
</linearGradient>
<linearGradient id="paint20_linear_305_3480" x1="483.874" y1="810.623" x2="1022.31" y2="810.623" gradientUnits="userSpaceOnUse">
<stop stop-color="#FFC170"/>
<stop offset="1" stop-color="#F62F42"/>
</linearGradient>
<linearGradient id="paint21_linear_305_3480" x1="209.85" y1="269.405" x2="593.117" y2="269.405" gradientUnits="userSpaceOnUse">
<stop stop-color="#02AAB0"/>
<stop offset="1" stop-color="#00CDAC"/>
</linearGradient>
<linearGradient id="paint22_linear_305_3480" x1="9.73633" y1="177.401" x2="779.612" y2="177.401" gradientUnits="userSpaceOnUse">
<stop stop-color="#02AAB0"/>
<stop offset="1" stop-color="#00CDAC"/>
</linearGradient>
<linearGradient id="paint23_linear_305_3480" x1="593.685" y1="120.506" x2="781.267" y2="125.009" gradientUnits="userSpaceOnUse">
<stop stop-color="#24B3A2"/>
<stop offset="1" stop-color="#04FFD4"/>
</linearGradient>
<linearGradient id="paint24_linear_305_3480" x1="389.332" y1="232.164" x2="561.309" y2="232.164" gradientUnits="userSpaceOnUse">
<stop stop-color="#02AAB0"/>
<stop offset="1" stop-color="#00CDAC"/>
</linearGradient>
<linearGradient id="paint25_linear_305_3480" x1="236.176" y1="407.687" x2="546.091" y2="407.687" gradientUnits="userSpaceOnUse">
<stop stop-color="#428495"/>
<stop offset="0.5" stop-color="#19E9DA"/>
<stop offset="0.9905" stop-color="#98AAFF"/>
</linearGradient>
<linearGradient id="paint26_linear_305_3480" x1="410.421" y1="406.692" x2="421.684" y2="347.372" gradientUnits="userSpaceOnUse">
<stop stop-color="#5EB1D8"/>
<stop offset="1" stop-color="#3594C7"/>
</linearGradient>
<linearGradient id="paint27_linear_305_3480" x1="65" y1="370" x2="195.591" y2="613.6" gradientUnits="userSpaceOnUse">
<stop stop-color="#148C7E"/>
<stop offset="1" stop-color="#17EAD9"/>
</linearGradient>
<linearGradient id="paint28_linear_305_3480" x1="338.591" y1="545.214" x2="517.238" y2="545.214" gradientUnits="userSpaceOnUse">
<stop stop-color="#0086BF"/>
<stop offset="0.4472" stop-color="#349FC9"/>
<stop offset="1" stop-color="#1D6A96"/>
</linearGradient>
<linearGradient id="paint29_linear_305_3480" x1="409.132" y1="588.627" x2="405.378" y2="541.321" gradientUnits="userSpaceOnUse">
<stop stop-color="#D774AE"/>
<stop offset="1" stop-color="#B14A8C"/>
</linearGradient>
<linearGradient id="paint30_linear_305_3480" x1="457.622" y1="570.819" x2="502.323" y2="604.976" gradientUnits="userSpaceOnUse">
<stop stop-color="#E35C67"/>
<stop offset="1" stop-color="#381CE2"/>
</linearGradient>
<linearGradient id="paint31_linear_305_3480" x1="474.259" y1="543.115" x2="486.848" y2="555.725" gradientUnits="userSpaceOnUse">
<stop stop-color="#E35C67"/>
<stop offset="1" stop-color="#381CE2"/>
</linearGradient>
<linearGradient id="paint32_linear_305_3480" x1="126" y1="513" x2="652.499" y2="492.484" gradientUnits="userSpaceOnUse">
<stop stop-color="#17EAD9"/>
<stop offset="1" stop-color="#6078EA"/>
</linearGradient>
<linearGradient id="paint33_linear_305_3480" x1="322.452" y1="589.605" x2="323.628" y2="594.648" gradientUnits="userSpaceOnUse">
<stop stop-color="white"/>
<stop offset="1" stop-color="#D775AF"/>
</linearGradient>
<linearGradient id="paint34_linear_305_3480" x1="410.673" y1="722.954" x2="406.865" y2="678.89" gradientUnits="userSpaceOnUse">
<stop stop-color="#FFBD6F"/>
<stop offset="1" stop-color="#F73344"/>
</linearGradient>
<linearGradient id="paint35_linear_305_3480" x1="346.748" y1="700.657" x2="367.959" y2="709.651" gradientUnits="userSpaceOnUse">
<stop stop-color="white"/>
<stop offset="1" stop-color="#FFAC6A"/>
</linearGradient>
<linearGradient id="paint36_linear_305_3480" x1="316.12" y1="722.424" x2="365.111" y2="722.424" gradientUnits="userSpaceOnUse">
<stop stop-color="#F73444"/>
<stop offset="0.4472" stop-color="#FFB16C"/>
<stop offset="1" stop-color="#F73946"/>
</linearGradient>
<linearGradient id="paint37_linear_305_3480" x1="229.208" y1="750.503" x2="587.676" y2="750.503" gradientUnits="userSpaceOnUse">
<stop stop-color="#FFC170"/>
<stop offset="1" stop-color="#F62F42"/>
</linearGradient>
<linearGradient id="paint38_linear_305_3480" x1="-79.7542" y1="636.18" x2="52.7303" y2="984.618" gradientUnits="userSpaceOnUse">
<stop stop-color="#E35C67"/>
<stop offset="1" stop-color="#381CE2"/>
</linearGradient>
<linearGradient id="paint39_linear_305_3480" x1="245.853" y1="741.824" x2="460.62" y2="741.824" gradientUnits="userSpaceOnUse">
<stop stop-color="white"/>
<stop offset="0.5" stop-color="white"/>
<stop offset="1" stop-color="white"/>
</linearGradient>
<linearGradient id="paint40_linear_305_3480" x1="193.071" y1="607.502" x2="467.315" y2="607.502" gradientUnits="userSpaceOnUse">
<stop stop-color="white"/>
<stop offset="0.5" stop-color="white"/>
<stop offset="1" stop-color="white"/>
</linearGradient>
<linearGradient id="paint41_linear_305_3480" x1="198.686" y1="454.448" x2="472.809" y2="454.448" gradientUnits="userSpaceOnUse">
<stop stop-color="white"/>
<stop offset="0.5" stop-color="white"/>
<stop offset="1" stop-color="white"/>
</linearGradient>
<linearGradient id="paint42_linear_305_3480" x1="151.939" y1="284.727" x2="467.315" y2="284.727" gradientUnits="userSpaceOnUse">
<stop stop-color="white"/>
<stop offset="0.5" stop-color="white"/>
<stop offset="1" stop-color="white"/>
</linearGradient>
<linearGradient id="paint43_linear_305_3480" x1="60.1005" y1="116.469" x2="313.343" y2="116.469" gradientUnits="userSpaceOnUse">
<stop stop-color="white"/>
<stop offset="0.5" stop-color="white"/>
<stop offset="1" stop-color="white"/>
</linearGradient>
<linearGradient id="paint44_linear_305_3480" x1="446.044" y1="203.383" x2="733.266" y2="203.383" gradientUnits="userSpaceOnUse">
<stop stop-color="white"/>
<stop offset="0.5" stop-color="white"/>
<stop offset="1" stop-color="white"/>
</linearGradient>
<linearGradient id="paint45_linear_305_3480" x1="601.421" y1="408.946" x2="630.223" y2="408.711" gradientUnits="userSpaceOnUse">
<stop stop-color="#17EAD9"/>
<stop offset="1" stop-color="#6078EA"/>
</linearGradient>
<linearGradient id="paint46_linear_305_3480" x1="606.671" y1="378.048" x2="616.931" y2="377.938" gradientUnits="userSpaceOnUse">
<stop stop-color="#17EAD9"/>
<stop offset="1" stop-color="#6078EA"/>
</linearGradient>
<linearGradient id="paint47_linear_305_3480" x1="427.9" y1="432.575" x2="456.704" y2="432.339" gradientUnits="userSpaceOnUse">
<stop stop-color="#17EAD9"/>
<stop offset="1" stop-color="#6078EA"/>
</linearGradient>
<linearGradient id="paint48_linear_305_3480" x1="433.177" y1="401.722" x2="443.442" y2="401.547" gradientUnits="userSpaceOnUse">
<stop stop-color="#17EAD9"/>
<stop offset="1" stop-color="#6078EA"/>
</linearGradient>
<linearGradient id="paint49_linear_305_3480" x1="177.855" y1="275.32" x2="206.738" y2="275.32" gradientUnits="userSpaceOnUse">
<stop stop-color="#02AAB0"/>
<stop offset="1" stop-color="#00CDAC"/>
</linearGradient>
<linearGradient id="paint50_linear_305_3480" x1="185.142" y1="256.241" x2="191.864" y2="247.73" gradientUnits="userSpaceOnUse">
<stop stop-color="#02AAB0"/>
<stop offset="1" stop-color="#00CDAC"/>
</linearGradient>
<linearGradient id="paint51_linear_305_3480" x1="200.333" y1="291.163" x2="206.739" y2="291.163" gradientUnits="userSpaceOnUse">
<stop stop-color="#A1D1D2"/>
<stop offset="1" stop-color="#6AB1C4"/>
</linearGradient>
<linearGradient id="paint52_linear_305_3480" x1="320.325" y1="590.763" x2="365.026" y2="624.919" gradientUnits="userSpaceOnUse">
<stop stop-color="#E35C67"/>
<stop offset="1" stop-color="#381CE2"/>
</linearGradient>
<linearGradient id="paint53_linear_305_3480" x1="336.975" y1="563.146" x2="349.647" y2="575.684" gradientUnits="userSpaceOnUse">
<stop stop-color="#E35C67"/>
<stop offset="1" stop-color="#381CE2"/>
</linearGradient>
<linearGradient id="paint54_linear_305_3480" x1="216.453" y1="451.175" x2="242.767" y2="450.932" gradientUnits="userSpaceOnUse">
<stop stop-color="#17EAD9"/>
<stop offset="1" stop-color="#6078EA"/>
</linearGradient>
<linearGradient id="paint55_linear_305_3480" x1="230.658" y1="428.51" x2="238.647" y2="422.064" gradientUnits="userSpaceOnUse">
<stop stop-color="#17EAD9"/>
<stop offset="1" stop-color="#6078EA"/>
</linearGradient>
<linearGradient id="paint56_linear_305_3480" x1="507.827" y1="300.721" x2="676.805" y2="305.549" gradientUnits="userSpaceOnUse">
<stop stop-color="#16BCAD"/>
<stop offset="1" stop-color="#3FF7E9"/>
</linearGradient>
<linearGradient id="paint57_linear_305_3480" x1="546.347" y1="548.582" x2="519.794" y2="522.029" gradientUnits="userSpaceOnUse">
<stop stop-color="#5EB1D8"/>
<stop offset="1" stop-color="#3594C7"/>
</linearGradient>
<linearGradient id="paint58_linear_305_3480" x1="514.678" y1="697.819" x2="478.02" y2="679.985" gradientUnits="userSpaceOnUse">
<stop stop-color="white"/>
<stop offset="0.4801" stop-color="#DDC3EA"/>
<stop offset="1" stop-color="#997BB2"/>
<stop offset="1" stop-color="#AD8DB6"/>
</linearGradient>
<linearGradient id="paint59_linear_305_3480" x1="413.932" y1="850.915" x2="376.205" y2="813.187" gradientUnits="userSpaceOnUse">
<stop stop-color="white"/>
<stop offset="1" stop-color="#F84148"/>
</linearGradient>
<radialGradient id="paint60_radial_305_3480" cx="0" cy="0" r="1" gradientUnits="userSpaceOnUse" gradientTransform="translate(405.758 862.961) scale(199.264 15.9212)">
<stop stop-color="#AED1C2"/>
<stop offset="1" stop-color="#CEF5E4"/>
</radialGradient>
<clipPath id="clip0_305_3480">
<rect width="325.084" height="254" fill="white" transform="translate(708.279 590)"/>
</clipPath>
<clipPath id="clip1_305_3480">
<rect width="1094" height="879.049" fill="white"/>
</clipPath>
</defs>
</svg>
