<svg width="61" height="75" viewBox="0 0 61 75" fill="none" xmlns="http://www.w3.org/2000/svg">
<path d="M-3.27835e-06 75L61 0L7.5 -2.33856e-06C1.5 0.799997 -2.33127e-07 5.33333 -3.27835e-07 7.5L-3.27835e-06 75Z" fill="#1BBFA3"/>
<path d="M12.053 39.2945L10.1456 41.3932L4.22539 36.0126L6.14852 33.8966C6.68973 33.3011 7.27415 32.8962 7.90177 32.6819C8.52747 32.4658 9.16607 32.4427 9.81757 32.6125C10.4708 32.7804 11.1048 33.1437 11.7196 33.7024C12.3363 34.2629 12.7603 34.8612 12.9916 35.4972C13.2247 36.1313 13.2627 36.7729 13.1057 37.4219C12.9504 38.069 12.5995 38.6932 12.053 39.2945ZM10.2108 39.1668L10.9333 38.3718C11.2695 38.0018 11.4869 37.631 11.5853 37.2595C11.6835 36.8842 11.6517 36.5069 11.4897 36.1275C11.3277 35.7444 11.026 35.3523 10.5846 34.9512C10.1472 34.5536 9.731 34.2933 9.33614 34.1702C8.94303 34.0452 8.56623 34.0494 8.20573 34.1827C7.84524 34.3161 7.49685 34.5678 7.16057 34.9378L6.43545 35.7356L10.2108 39.1668ZM10.7455 28.8385L16.6658 34.2191L15.5282 35.4708L9.60793 30.0902L10.7455 28.8385ZM17.1629 25.6223C16.9855 25.5349 16.8095 25.4787 16.635 25.4539C16.4586 25.4273 16.2847 25.4328 16.1132 25.4705C15.9415 25.5045 15.7741 25.5706 15.6111 25.6687C15.4497 25.7649 15.2955 25.8939 15.1484 26.0558C14.8734 26.3584 14.7069 26.6926 14.6488 27.0586C14.5924 27.4226 14.65 27.7987 14.8215 28.1869C14.9912 28.5733 15.2822 28.9539 15.6946 29.3287C16.107 29.7035 16.5147 29.9597 16.9176 30.0971C17.3205 30.2346 17.7023 30.2578 18.063 30.1669C18.4217 30.0742 18.743 29.8717 19.0267 29.5595C19.2842 29.2762 19.4539 28.9888 19.5358 28.6973C19.6176 28.4021 19.6142 28.1175 19.5255 27.8433C19.4386 27.5673 19.2689 27.3145 19.0164 27.0851L19.2852 26.8648L17.898 28.3911L16.9556 27.5347L19.2072 25.0573L19.953 25.7351C20.4733 26.208 20.8206 26.7242 20.9948 27.2837C21.167 27.8414 21.1792 28.405 21.0313 28.9743C20.8814 29.5419 20.5805 30.0743 20.1286 30.5715C19.6242 31.1265 19.0587 31.5029 18.4321 31.7006C17.8036 31.8965 17.1561 31.9062 16.4895 31.7297C15.8228 31.5496 15.1772 31.1758 14.5528 30.6083C14.0729 30.1721 13.7082 29.7139 13.4585 29.2336C13.2086 28.7497 13.0673 28.2624 13.0347 27.7717C13.002 27.281 13.0697 26.8059 13.2376 26.3462C13.4055 25.8865 13.6673 25.461 14.0228 25.0698C14.3276 24.7345 14.6605 24.467 15.0215 24.2672C15.3806 24.0657 15.7504 23.9338 16.1308 23.8713C16.513 23.807 16.8913 23.8147 17.2657 23.8946C17.6381 23.9726 17.9892 24.1246 18.3189 24.3503L17.1629 25.6223ZM18.4473 20.3643L24.3675 25.7448L23.2299 26.9965L17.3097 21.616L18.4473 20.3643ZM20.2103 20.4978L19.1783 19.5599L23.5973 14.6977L24.6293 15.6356L22.982 17.4481L27.8703 21.8907L26.7458 23.128L21.8576 18.6853L20.2103 20.4978ZM30.5152 18.9805L29.2962 20.3218L25.2334 12.8974L26.6994 11.2844L34.4745 14.6241L33.2554 15.9654L27.3403 13.2973L27.2982 13.3436L30.5152 18.9805ZM28.112 16.9494L30.9914 13.7811L31.9685 14.6691L29.0891 17.8374L28.112 16.9494ZM35.1221 13.9115L29.2018 8.53097L30.3394 7.27927L35.2277 11.7219L37.5344 9.18384L38.5664 10.1218L35.1221 13.9115Z" fill="white"/>
</svg>
